test2/simulation/qsim/test2.msim.vcd
$comment
	File created using the following command:
		vcd file test2.msim.vcd -direction
$end
$date
	Sun Jan 23 01:51:56 2022
$end
$version
	ModelSim Version 2020.1
$end
$timescale
	1ps
$end

$scope module test2_vlg_vec_tst $end
$var reg 1 ! pin_name1 $end
$var reg 1 " pin_name2 $end
$var wire 1 # pin_name3 $end
$var wire 1 $ pin_name4 $end

$scope module i1 $end
$var wire 1 % gnd $end
$var wire 1 & vcc $end
$var wire 1 ' unknown $end
$var tri1 1 ( devclrn $end
$var tri1 1 ) devpor $end
$var tri1 1 * devoe $end
$var wire 1 + pin_name3~output_o $end
$var wire 1 , pin_name4~output_o $end
$var wire 1 - pin_name1~input_o $end
$var wire 1 . pin_name2~input_o $end
$var wire 1 / inst~combout $end
$var wire 1 0 inst1~combout $end
$upscope $end
$upscope $end
$enddefinitions $end
#0
$dumpvars
1!
0"
0#
1$
0%
1&
x'
1(
1)
1*
0+
1,
1-
0.
0/
10
$end
#5000
0!
1"
0-
1.
#20000
0"
0.
00
0,
0$
#25000
1!
1"
1-
1.
10
1/
1+
1,
1$
1#
#35000
0!
0-
0/
0+
0#
#40000
1!
1-
1/
1+
1#
#45000
0"
0!
0.
0-
00
0/
0+
0,
0$
0#
#50000
1!
1-
10
1,
1$
#60000
0!
0-
00
0,
0$
#65000
1"
1.
10
1,
1$
#75000
1!
1-
1/
1+
1#
#80000
0!
0-
0/
0+
0#
#95000
0"
1!
0.
1-
#105000
1"
0!
1.
0-
#115000
0"
1!
0.
1-
#120000
0!
0-
00
0,
0$
#125000
1!
1-
10
1,
1$
#135000
1"
1.
1/
1+
1#
#150000
0!
0"
0-
0.
00
0/
0+
0,
0$
0#
#160000
1"
1.
10
1,
1$
#165000
0"
0.
00
0,
0$
#170000
1!
1"
1-
1.
10
1/
1+
1,
1$
1#
#180000
0!
0-
0/
0+
0#
#190000
0"
0.
00
0,
0$
#195000
1"
1.
10
1,
1$
#205000
1!
1-
1/
1+
1#
#210000
0"
0.
0/
0+
0#
#215000
0!
0-
00
0,
0$
#220000
1"
1!
1.
1-
10
1/
1+
1,
1$
1#
#225000
0"
0.
0/
0+
0#
#235000
1"
1.
1/
1+
1#
#240000
0!
0-
0/
0+
0#
#260000
1!
1-
1/
1+
1#
#265000
0"
0!
0.
0-
00
0/
0+
0,
0$
0#
#270000
1"
1!
1.
1-
10
1/
1+
1,
1$
1#
#275000
0"
0!
0.
0-
00
0/
0+
0,
0$
0#
#290000
1"
1!
1.
1-
10
1/
1+
1,
1$
1#
#295000
0"
0.
0/
0+
0#
#305000
1"
1.
1/
1+
1#
#310000
0!
0"
0-
0.
00
0/
0+
0,
0$
0#
#315000
1!
1-
10
1,
1$
#320000
1"
1.
1/
1+
1#
#330000
0!
0-
0/
0+
0#
#335000
0"
0.
00
0,
0$
#340000
1!
1-
10
1,
1$
#345000
0!
0-
00
0,
0$
#350000
1"
1.
10
1,
1$
#355000
1!
1-
1/
1+
1#
#360000
0"
0!
0.
0-
00
0/
0+
0,
0$
0#
#365000
1"
1!
1.
1-
10
1/
1+
1,
1$
1#
#370000
0"
0.
0/
0+
0#
#375000
1"
1.
1/
1+
1#
#380000
0!
0-
0/
0+
0#
#390000
1!
1-
1/
1+
1#
#395000
0"
0.
0/
0+
0#
#410000
0!
1"
0-
1.
#415000
0"
0.
00
0,
0$
#420000
1"
1.
10
1,
1$
#445000
1!
0"
1-
0.
#450000
1"
1.
1/
1+
1#
#465000
0!
0-
0/
0+
0#
#475000
0"
1!
0.
1-
#480000
1"
0!
1.
0-
#485000
1!
1-
1/
1+
1#
#490000
0"
0.
0/
0+
0#
#495000
0!
1"
0-
1.
#500000
1!
1-
1/
1+
1#
#505000
0!
0-
0/
0+
0#
#515000
0"
0.
00
0,
0$
#520000
1!
1-
10
1,
1$
#525000
1"
1.
1/
1+
1#
#530000
0!
0-
0/
0+
0#
#535000
0"
0.
00
0,
0$
#540000
1!
1-
10
1,
1$
#545000
0!
0-
00
0,
0$
#555000
1"
1!
1.
1-
10
1/
1+
1,
1$
1#
#565000
0!
0-
0/
0+
0#
#570000
0"
0.
00
0,
0$
#575000
1!
1-
10
1,
1$
#580000
1"
0!
1.
0-
#585000
0"
0.
00
0,
0$
#590000
1!
1"
1-
1.
10
1/
1+
1,
1$
1#
#600000
0!
0-
0/
0+
0#
#605000
0"
0.
00
0,
0$
#610000
1!
1-
10
1,
1$
#635000
0!
0-
00
0,
0$
#640000
1"
1!
1.
1-
10
1/
1+
1,
1$
1#
#645000
0"
0.
0/
0+
0#
#650000
0!
1"
0-
1.
#655000
1!
0"
1-
0.
#660000
1"
1.
1/
1+
1#
#670000
0!
0"
0-
0.
00
0/
0+
0,
0$
0#
#680000
1!
1"
1-
1.
10
1/
1+
1,
1$
1#
#685000
0!
0"
0-
0.
00
0/
0+
0,
0$
0#
#690000
1!
1"
1-
1.
10
1/
1+
1,
1$
1#
#705000
0"
0.
0/
0+
0#
#710000
0!
1"
0-
1.
#715000
1!
0"
1-
0.
#720000
0!
0-
00
0,
0$
#725000
1"
1!
1.
1-
10
1/
1+
1,
1$
1#
#745000
0"
0.
0/
0+
0#
#750000
0!
1"
0-
1.
#755000
1!
0"
1-
0.
#760000
0!
0-
00
0,
0$
#770000
1"
1!
1.
1-
10
1/
1+
1,
1$
1#
#780000
0"
0!
0.
0-
00
0/
0+
0,
0$
0#
#785000
1"
1!
1.
1-
10
1/
1+
1,
1$
1#
#790000
0"
0!
0.
0-
00
0/
0+
0,
0$
0#
#795000
1"
1.
10
1,
1$
#800000
1!
1-
1/
1+
1#
#805000
0!
0-
0/
0+
0#
#810000
0"
1!
0.
1-
#815000
1"
1.
1/
1+
1#
#820000
0"
0.
0/
0+
0#
#825000
0!
1"
0-
1.
#830000
1!
1-
1/
1+
1#
#835000
0!
0-
0/
0+
0#
#840000
0"
1!
0.
1-
#845000
1"
1.
1/
1+
1#
#850000
0!
0-
0/
0+
0#
#855000
0"
1!
0.
1-
#860000
0!
0-
00
0,
0$
#865000
1"
1.
10
1,
1$
#870000
1!
1-
1/
1+
1#
#895000
0!
0-
0/
0+
0#
#900000
1!
1-
1/
1+
1#
#905000
0"
0.
0/
0+
0#
#910000
0!
1"
0-
1.
#915000
0"
0.
00
0,
0$
#920000
1!
1"
1-
1.
10
1/
1+
1,
1$
1#
#930000
0"
0.
0/
0+
0#
#935000
0!
0-
00
0,
0$
#940000
1!
1-
10
1,
1$
#945000
1"
0!
1.
0-
#950000
1!
1-
1/
1+
1#
#960000
0!
0-
0/
0+
0#
#965000
1!
1-
1/
1+
1#
#970000
0"
0!
0.
0-
00
0/
0+
0,
0$
0#
#975000
1!
1-
10
1,
1$
#980000
1"
0!
1.
0-
#990000
1!
1-
1/
1+
1#
#995000
0!
0-
0/
0+
0#
