clock/simulation/qsim/clock.msim.vcd
$comment
	File created using the following command:
		vcd file clock.msim.vcd -direction
$end
$date
	Mon Jan 24 01:14:31 2022
$end
$version
	ModelSim Version 2020.1
$end
$timescale
	1ps
$end

$scope module clock_vlg_vec_tst $end
$var reg 1 ! clk $end
$var reg 1 " clr $end
$var wire 1 # Hr [7] $end
$var wire 1 $ Hr [6] $end
$var wire 1 % Hr [5] $end
$var wire 1 & Hr [4] $end
$var wire 1 ' Hr [3] $end
$var wire 1 ( Hr [2] $end
$var wire 1 ) Hr [1] $end
$var wire 1 * Hr [0] $end
$var wire 1 + Min [7] $end
$var wire 1 , Min [6] $end
$var wire 1 - Min [5] $end
$var wire 1 . Min [4] $end
$var wire 1 / Min [3] $end
$var wire 1 0 Min [2] $end
$var wire 1 1 Min [1] $end
$var wire 1 2 Min [0] $end
$var wire 1 3 Sec [7] $end
$var wire 1 4 Sec [6] $end
$var wire 1 5 Sec [5] $end
$var wire 1 6 Sec [4] $end
$var wire 1 7 Sec [3] $end
$var wire 1 8 Sec [2] $end
$var wire 1 9 Sec [1] $end
$var wire 1 : Sec [0] $end

$scope module i1 $end
$var wire 1 ; gnd $end
$var wire 1 < vcc $end
$var wire 1 = unknown $end
$var tri1 1 > devclrn $end
$var tri1 1 ? devpor $end
$var tri1 1 @ devoe $end
$var wire 1 A Hr[0]~output_o $end
$var wire 1 B Hr[1]~output_o $end
$var wire 1 C Hr[2]~output_o $end
$var wire 1 D Hr[3]~output_o $end
$var wire 1 E Hr[4]~output_o $end
$var wire 1 F Hr[5]~output_o $end
$var wire 1 G Hr[6]~output_o $end
$var wire 1 H Hr[7]~output_o $end
$var wire 1 I Min[0]~output_o $end
$var wire 1 J Min[1]~output_o $end
$var wire 1 K Min[2]~output_o $end
$var wire 1 L Min[3]~output_o $end
$var wire 1 M Min[4]~output_o $end
$var wire 1 N Min[5]~output_o $end
$var wire 1 O Min[6]~output_o $end
$var wire 1 P Min[7]~output_o $end
$var wire 1 Q Sec[0]~output_o $end
$var wire 1 R Sec[1]~output_o $end
$var wire 1 S Sec[2]~output_o $end
$var wire 1 T Sec[3]~output_o $end
$var wire 1 U Sec[4]~output_o $end
$var wire 1 V Sec[5]~output_o $end
$var wire 1 W Sec[6]~output_o $end
$var wire 1 X Sec[7]~output_o $end
$var wire 1 Y clk~input_o $end
$var wire 1 Z clk~inputclkctrl_outclk $end
$var wire 1 [ clr~input_o $end
$var wire 1 \ Add0~0_combout $end
$var wire 1 ] Add0~71_combout $end
$var wire 1 ^ Add0~1 $end
$var wire 1 _ Add0~2_combout $end
$var wire 1 ` Add0~70_combout $end
$var wire 1 a Add0~3 $end
$var wire 1 b Add0~4_combout $end
$var wire 1 c Add0~69_combout $end
$var wire 1 d Add0~5 $end
$var wire 1 e Add0~6_combout $end
$var wire 1 f Add0~68_combout $end
$var wire 1 g Add0~7 $end
$var wire 1 h Add0~8_combout $end
$var wire 1 i Add0~67_combout $end
$var wire 1 j Add0~9 $end
$var wire 1 k Add0~10_combout $end
$var wire 1 l Add0~66_combout $end
$var wire 1 m Add0~11 $end
$var wire 1 n Add0~12_combout $end
$var wire 1 o Add0~65_combout $end
$var wire 1 p Add0~13 $end
$var wire 1 q Add0~14_combout $end
$var wire 1 r Add0~64_combout $end
$var wire 1 s Add0~15 $end
$var wire 1 t Add0~16_combout $end
$var wire 1 u Add0~63_combout $end
$var wire 1 v Add0~17 $end
$var wire 1 w Add0~18_combout $end
$var wire 1 x Add0~62_combout $end
$var wire 1 y Add0~19 $end
$var wire 1 z Add0~20_combout $end
$var wire 1 { Add0~61_combout $end
$var wire 1 | Add0~21 $end
$var wire 1 } Add0~22_combout $end
$var wire 1 ~ Add0~60_combout $end
$var wire 1 !! Add0~23 $end
$var wire 1 "! Add0~24_combout $end
$var wire 1 #! Add0~59_combout $end
$var wire 1 $! Add0~25 $end
$var wire 1 %! Add0~26_combout $end
$var wire 1 &! Add0~58_combout $end
$var wire 1 '! Add0~27 $end
$var wire 1 (! Add0~28_combout $end
$var wire 1 )! Add0~57_combout $end
$var wire 1 *! Add0~29 $end
$var wire 1 +! Add0~30_combout $end
$var wire 1 ,! Add0~56_combout $end
$var wire 1 -! Add0~31 $end
$var wire 1 .! Add0~32_combout $end
$var wire 1 /! Add0~55_combout $end
$var wire 1 0! Add0~33 $end
$var wire 1 1! Add0~34_combout $end
$var wire 1 2! Add0~54_combout $end
$var wire 1 3! Add0~35 $end
$var wire 1 4! Add0~36_combout $end
$var wire 1 5! Add0~53_combout $end
$var wire 1 6! Add0~37 $end
$var wire 1 7! Add0~38_combout $end
$var wire 1 8! Add0~52_combout $end
$var wire 1 9! Add0~39 $end
$var wire 1 :! Add0~40_combout $end
$var wire 1 ;! Add0~51_combout $end
$var wire 1 <! Add0~41 $end
$var wire 1 =! Add0~42_combout $end
$var wire 1 >! Add0~50_combout $end
$var wire 1 ?! Add0~43 $end
$var wire 1 @! Add0~44_combout $end
$var wire 1 A! Add0~49_combout $end
$var wire 1 B! Q[23]~feeder_combout $end
$var wire 1 C! Equal0~6_combout $end
$var wire 1 D! Equal0~5_combout $end
$var wire 1 E! Equal0~1_combout $end
$var wire 1 F! Equal0~2_combout $end
$var wire 1 G! Equal0~3_combout $end
$var wire 1 H! Equal0~0_combout $end
$var wire 1 I! Equal0~4_combout $end
$var wire 1 J! always0~0_combout $end
$var wire 1 K! Add0~45 $end
$var wire 1 L! Add0~46_combout $end
$var wire 1 M! Add0~48_combout $end
$var wire 1 N! Clk1~feeder_combout $end
$var wire 1 O! Clk1~q $end
$var wire 1 P! Clk1~clkctrl_outclk $end
$var wire 1 Q! Min~7_combout $end
$var wire 1 R! Sec[1]~6_combout $end
$var wire 1 S! Sec~3_combout $end
$var wire 1 T! Sec[0]~reg0_q $end
$var wire 1 U! Sec~4_combout $end
$var wire 1 V! Sec[1]~reg0_q $end
$var wire 1 W! Add6~0_combout $end
$var wire 1 X! Sec~5_combout $end
$var wire 1 Y! Sec[2]~reg0_q $end
$var wire 1 Z! Sec~7_combout $end
$var wire 1 [! Sec[3]~reg0_q $end
$var wire 1 \! Sec[1]~2_combout $end
$var wire 1 ]! Sec~8_combout $end
$var wire 1 ^! Sec[4]~reg0_q $end
$var wire 1 _! Min[3]~3_combout $end
$var wire 1 `! Sec~9_combout $end
$var wire 1 a! Sec[5]~reg0_q $end
$var wire 1 b! Sec~11_combout $end
$var wire 1 c! Sec[6]~reg0_q $end
$var wire 1 d! Add5~0_combout $end
$var wire 1 e! Sec~10_combout $end
$var wire 1 f! Sec[7]~reg0_q $end
$var wire 1 g! Equal5~0_combout $end
$var wire 1 h! Min~2_combout $end
$var wire 1 i! Min[0]~reg0_q $end
$var wire 1 j! Min~5_combout $end
$var wire 1 k! Min[1]~reg0_q $end
$var wire 1 l! Min~11_combout $end
$var wire 1 m! Min[2]~reg0_q $end
$var wire 1 n! Add4~0_combout $end
$var wire 1 o! Min~6_combout $end
$var wire 1 p! Min[3]~reg0_q $end
$var wire 1 q! Equal1~0_combout $end
$var wire 1 r! Min[3]~4_combout $end
$var wire 1 s! Min[4]~reg0_q $end
$var wire 1 t! Min~8_combout $end
$var wire 1 u! Min[5]~reg0_q $end
$var wire 1 v! Add3~0_combout $end
$var wire 1 w! Min~9_combout $end
$var wire 1 x! Min[6]~reg0_q $end
$var wire 1 y! Add3~1_combout $end
$var wire 1 z! Min~10_combout $end
$var wire 1 {! Min[7]~reg0_q $end
$var wire 1 |! Equal1~1_combout $end
$var wire 1 }! Equal1~2_combout $end
$var wire 1 ~! Hr[1]~4_combout $end
$var wire 1 !" Hr[4]~9_combout $end
$var wire 1 "" Hr[4]~reg0_q $end
$var wire 1 #" Hr[5]~10_combout $end
$var wire 1 $" Hr[5]~reg0_q $end
$var wire 1 %" Add1~0_combout $end
$var wire 1 &" Hr[6]~11_combout $end
$var wire 1 '" Hr[6]~reg0_q $end
$var wire 1 (" Add1~1_combout $end
$var wire 1 )" Hr[7]~12_combout $end
$var wire 1 *" Hr[7]~reg0_q $end
$var wire 1 +" Add2~0_combout $end
$var wire 1 ," Hr[3]~7_combout $end
$var wire 1 -" Hr[3]~8_combout $end
$var wire 1 ." Hr[3]~reg0_q $end
$var wire 1 /" Equal1~4_combout $end
$var wire 1 0" Equal1~5_combout $end
$var wire 1 1" Hr[4]~2_combout $end
$var wire 1 2" Hr[1]~5_combout $end
$var wire 1 3" Hr[1]~reg0_q $end
$var wire 1 4" Hr[2]~13_combout $end
$var wire 1 5" Hr[2]~6_combout $end
$var wire 1 6" Hr[2]~reg0_q $end
$var wire 1 7" Equal1~3_combout $end
$var wire 1 8" Equal2~0_combout $end
$var wire 1 9" Hr[0]~3_combout $end
$var wire 1 :" Hr[0]~reg0_q $end
$var wire 1 ;" Q [23] $end
$var wire 1 <" Q [22] $end
$var wire 1 =" Q [21] $end
$var wire 1 >" Q [20] $end
$var wire 1 ?" Q [19] $end
$var wire 1 @" Q [18] $end
$var wire 1 A" Q [17] $end
$var wire 1 B" Q [16] $end
$var wire 1 C" Q [15] $end
$var wire 1 D" Q [14] $end
$var wire 1 E" Q [13] $end
$var wire 1 F" Q [12] $end
$var wire 1 G" Q [11] $end
$var wire 1 H" Q [10] $end
$var wire 1 I" Q [9] $end
$var wire 1 J" Q [8] $end
$var wire 1 K" Q [7] $end
$var wire 1 L" Q [6] $end
$var wire 1 M" Q [5] $end
$var wire 1 N" Q [4] $end
$var wire 1 O" Q [3] $end
$var wire 1 P" Q [2] $end
$var wire 1 Q" Q [1] $end
$var wire 1 R" Q [0] $end
$upscope $end
$upscope $end
$enddefinitions $end
#0
$dumpvars
0!
0"
0*
0)
0(
0'
0&
0%
0$
0#
02
01
00
0/
0.
0-
0,
0+
0:
09
08
07
06
05
04
03
0;
1<
x=
1>
1?
1@
0A
0B
0C
0D
0E
0F
0G
0H
0I
0J
0K
0L
0M
0N
0O
0P
0Q
0R
0S
0T
0U
0V
0W
0X
0Y
0Z
0[
1\
1]
0^
0_
0`
1a
0b
0c
0d
0e
0f
1g
0h
0i
0j
0k
0l
1m
0n
0o
0p
0q
0r
1s
0t
0u
0v
0w
0x
1y
0z
0{
0|
0}
0~
1!!
0"!
0#!
0$!
0%!
0&!
1'!
0(!
0)!
0*!
0+!
0,!
1-!
0.!
0/!
00!
01!
02!
13!
04!
05!
06!
07!
08!
19!
0:!
0;!
0<!
0=!
0>!
1?!
0@!
0A!
0B!
0C!
0D!
0E!
0F!
0G!
0H!
0I!
0J!
0K!
0L!
0M!
0N!
0O!
0P!
1Q!
0R!
1S!
0T!
0U!
0V!
0W!
0X!
0Y!
0Z!
0[!
0\!
1]!
0^!
0_!
0`!
0a!
0b!
0c!
0d!
0e!
0f!
0g!
1h!
0i!
0j!
0k!
0l!
0m!
0n!
0o!
0p!
0q!
0r!
0s!
0t!
0u!
0v!
0w!
0x!
0y!
0z!
0{!
0|!
0}!
0~!
0!"
0""
0#"
0$"
0%"
0&"
0'"
0("
0)"
0*"
0+"
0,"
0-"
0."
0/"
00"
11"
02"
03"
04"
05"
06"
07"
08"
09"
0:"
0R"
0Q"
0P"
0O"
0N"
0M"
0L"
0K"
0J"
0I"
0H"
0G"
0F"
0E"
0D"
0C"
0B"
0A"
0@"
0?"
0>"
0="
0<"
0;"
$end
#5000
1!
1Y
1Z
1R"
1^
0\
1_
0]
1`
#10000
0!
0Y
0Z
#15000
1!
1Y
1Z
1Q"
0R"
0a
0_
0^
1\
1b
0`
1a
1_
1]
1c
0b
1`
0c
#20000
0!
0Y
0Z
#25000
1!
1Y
1Z
1R"
1^
0\
0a
0_
0]
1b
0`
1c
#30000
0!
0Y
0Z
#35000
1!
1Y
1Z
1P"
0Q"
0R"
1d
0b
1a
1_
0^
1\
1e
0c
0d
1b
1`
0_
1]
1f
0e
1c
0`
0f
#40000
0!
0Y
0Z
#45000
1!
1Y
1Z
1R"
1^
0\
1_
0]
1`
#50000
0!
0Y
0Z
#55000
1!
1Y
1Z
1Q"
0R"
0a
0_
0^
1\
1d
0b
0`
1a
1_
1]
1e
0c
0d
1b
1`
1f
0e
1c
0f
#60000
0!
0Y
0Z
#65000
1!
1Y
1Z
1R"
1^
0\
0a
0_
0]
1d
0b
0`
1e
0c
1f
#70000
0!
0Y
0Z
#75000
1!
1Y
1Z
1O"
0P"
0Q"
0R"
0g
0e
0d
1b
1a
1_
0^
1\
1h
0f
1g
1e
1c
0b
1`
0_
1]
0h
1f
0c
0`
1i
0i
#80000
0!
0Y
0Z
#85000
1!
1Y
1Z
1R"
1^
0\
1_
0]
1`
#90000
0!
0Y
0Z
#95000
1!
1Y
1Z
1Q"
0R"
0a
0_
0^
1\
1b
0`
1a
1_
1]
1c
0b
1`
0c
#100000
0!
0Y
0Z
#105000
1!
1Y
1Z
1R"
1^
0\
0a
0_
0]
1b
0`
1c
#110000
0!
0Y
0Z
#115000
1!
1Y
1Z
1P"
0Q"
0R"
1d
0b
1a
1_
0^
1\
0g
0e
0c
0d
1b
1`
0_
1]
1h
0f
1g
1e
1c
0`
0h
1f
1i
0i
#120000
0!
0Y
0Z
#125000
1!
1Y
1Z
1R"
1^
0\
1_
0]
1`
#130000
0!
0Y
0Z
#135000
1!
1Y
1Z
1Q"
0R"
0a
0_
0^
1\
1d
0b
0`
1a
1_
1]
0g
0e
0c
0d
1b
1`
1h
0f
1g
1e
1c
0h
1f
1i
0i
#140000
0!
0Y
0Z
#145000
1!
1Y
1Z
1R"
1H!
1^
0\
0a
0_
0]
1d
0b
0`
0g
0e
0c
1h
0f
1i
#150000
0!
0Y
0Z
#155000
1!
1Y
1Z
1N"
0O"
0P"
0Q"
0R"
1j
0h
0H!
1g
1e
0d
1b
1a
1_
0^
1\
1k
0j
1h
1f
0e
1c
0b
1`
0_
1]
0i
0k
0f
0c
0`
1l
1i
0l
#160000
0!
0Y
0Z
#165000
1!
1Y
1Z
1R"
1^
0\
1_
0]
1`
#170000
0!
0Y
0Z
#175000
1!
1Y
1Z
1Q"
0R"
0a
0_
0^
1\
1b
0`
1a
1_
1]
1c
0b
1`
0c
#180000
0!
0Y
0Z
#185000
1!
1Y
1Z
1R"
1^
0\
0a
0_
0]
1b
0`
1c
#190000
0!
0Y
0Z
#195000
1!
1Y
1Z
1P"
0Q"
0R"
1d
0b
1a
1_
0^
1\
1e
0c
0d
1b
1`
0_
1]
1f
0e
1c
0`
0f
#200000
0!
0Y
0Z
#205000
1!
1Y
1Z
1R"
1^
0\
1_
0]
1`
#210000
0!
0Y
0Z
#215000
1!
1Y
1Z
1Q"
0R"
0a
0_
0^
1\
1d
0b
0`
1a
1_
1]
1e
0c
0d
1b
1`
1f
0e
1c
0f
#220000
0!
0Y
0Z
#225000
1!
1Y
1Z
1R"
1^
0\
0a
0_
0]
1d
0b
0`
1e
0c
1f
#230000
0!
0Y
0Z
#235000
1!
1Y
1Z
1O"
0P"
0Q"
0R"
0g
0e
0d
1b
1a
1_
0^
1\
1j
0h
0f
1g
1e
1c
0b
1`
0_
1]
1k
0j
1h
1f
0c
0`
0i
0k
1l
1i
0l
#240000
0!
0Y
0Z
#245000
1!
1Y
1Z
1R"
1^
0\
1_
0]
1`
#250000
0!
0Y
0Z
#255000
1!
1Y
1Z
1Q"
0R"
0a
0_
0^
1\
1b
0`
1a
1_
1]
1c
0b
1`
0c
#260000
0!
0Y
0Z
#265000
1!
1Y
1Z
1R"
1^
0\
0a
0_
0]
1b
0`
1c
#270000
0!
0Y
0Z
#275000
1!
1Y
1Z
1P"
0Q"
0R"
1d
0b
1a
1_
0^
1\
0g
0e
0c
0d
1b
1`
0_
1]
1j
0h
0f
1g
1e
1c
0`
1k
0j
1h
1f
0i
0k
1l
1i
0l
#280000
0!
0Y
0Z
#285000
1!
1Y
1Z
1R"
1^
0\
1_
0]
1`
#290000
0!
0Y
0Z
#295000
1!
1Y
1Z
1Q"
0R"
0a
0_
0^
1\
1d
0b
0`
1a
1_
1]
0g
0e
0c
0d
1b
1`
1j
0h
0f
1g
1e
1c
1k
0j
1h
1f
0i
0k
1l
1i
0l
#300000
0!
0Y
0Z
#305000
1!
1Y
1Z
1R"
1H!
1^
0\
0a
0_
0]
1d
0b
0`
0g
0e
0c
1j
0h
0f
1k
0i
1l
#310000
0!
0Y
0Z
#315000
1!
1Y
1Z
1M"
0N"
0O"
0P"
0Q"
0R"
0m
0k
0j
1h
0H!
1g
1e
0d
1b
1a
1_
0^
1\
1n
1m
1k
0h
1f
0e
1c
0b
1`
0_
1]
0l
1i
0n
0f
0c
0`
1o
1l
0i
0o
#320000
0!
0Y
0Z
#325000
1!
1Y
1Z
1R"
1^
0\
1_
0]
1`
#330000
0!
0Y
0Z
#335000
1!
1Y
1Z
1Q"
0R"
0a
0_
0^
1\
1b
0`
1a
1_
1]
1c
0b
1`
0c
#340000
0!
0Y
0Z
#345000
1!
1Y
1Z
1R"
1^
0\
0a
0_
0]
1b
0`
1c
#350000
0!
0Y
0Z
#355000
1!
1Y
1Z
1P"
0Q"
0R"
1d
0b
1a
1_
0^
1\
1e
0c
0d
1b
1`
0_
1]
1f
0e
1c
0`
0f
#360000
0!
0Y
0Z
#365000
1!
1Y
1Z
1R"
1^
0\
1_
0]
1`
#370000
0!
0Y
0Z
#375000
1!
1Y
1Z
1Q"
0R"
0a
0_
0^
1\
1d
0b
0`
1a
1_
1]
1e
0c
0d
1b
1`
1f
0e
1c
0f
#380000
0!
0Y
0Z
#385000
1!
1Y
1Z
1R"
1^
0\
0a
0_
0]
1d
0b
0`
1e
0c
1f
#390000
0!
0Y
0Z
#395000
1!
1Y
1Z
1O"
0P"
0Q"
0R"
0g
0e
0d
1b
1a
1_
0^
1\
1h
0f
1g
1e
1c
0b
1`
0_
1]
0h
1f
0c
0`
1i
0i
#400000
0!
0Y
0Z
#405000
1!
1Y
1Z
1R"
1^
0\
1_
0]
1`
#410000
0!
0Y
0Z
#415000
1!
1Y
1Z
1Q"
0R"
0a
0_
0^
1\
1b
0`
1a
1_
1]
1c
0b
1`
0c
#420000
0!
0Y
0Z
#425000
1!
1Y
1Z
1R"
1^
0\
0a
0_
0]
1b
0`
1c
#430000
0!
0Y
0Z
#435000
1!
1Y
1Z
1P"
0Q"
0R"
1d
0b
1a
1_
0^
1\
0g
0e
0c
0d
1b
1`
0_
1]
1h
0f
1g
1e
1c
0`
0h
1f
1i
0i
#440000
0!
0Y
0Z
#445000
1!
1Y
1Z
1R"
1^
0\
1_
0]
1`
#450000
0!
0Y
0Z
#455000
1!
1Y
1Z
1Q"
0R"
0a
0_
0^
1\
1d
0b
0`
1a
1_
1]
0g
0e
0c
0d
1b
1`
1h
0f
1g
1e
1c
0h
1f
1i
0i
#460000
0!
0Y
0Z
#465000
1!
1Y
1Z
1R"
1H!
1^
0\
0a
0_
0]
1d
0b
0`
0g
0e
0c
1h
0f
1i
#470000
0!
0Y
0Z
#475000
1!
1Y
1Z
1N"
0O"
0P"
0Q"
0R"
1j
0h
0H!
1g
1e
0d
1b
1a
1_
0^
1\
0m
0k
0j
1h
1f
0e
1c
0b
1`
0_
1]
0i
1n
1m
1k
0f
0c
0`
0l
1i
0n
1o
1l
0o
#480000
0!
0Y
0Z
#485000
1!
1Y
1Z
1R"
1^
0\
1_
0]
1`
#490000
0!
0Y
0Z
#495000
1!
1Y
1Z
1Q"
0R"
0a
0_
0^
1\
1b
0`
1a
1_
1]
1c
0b
1`
0c
#500000
0!
0Y
0Z
#505000
1!
1Y
1Z
1R"
1^
0\
0a
0_
0]
1b
0`
1c
#510000
0!
0Y
0Z
#515000
1!
1Y
1Z
1P"
0Q"
0R"
1d
0b
1a
1_
0^
1\
1e
0c
0d
1b
1`
0_
1]
1f
0e
1c
0`
0f
#520000
0!
0Y
0Z
#525000
1!
1Y
1Z
1R"
1^
0\
1_
0]
1`
#530000
0!
0Y
0Z
#535000
1!
1Y
1Z
1Q"
0R"
0a
0_
0^
1\
1d
0b
0`
1a
1_
1]
1e
0c
0d
1b
1`
1f
0e
1c
0f
#540000
0!
0Y
0Z
#545000
1!
1Y
1Z
1R"
1^
0\
0a
0_
0]
1d
0b
0`
1e
0c
1f
#550000
0!
0Y
0Z
#555000
1!
1Y
1Z
1O"
0P"
0Q"
0R"
0g
0e
0d
1b
1a
1_
0^
1\
1j
0h
0f
1g
1e
1c
0b
1`
0_
1]
0m
0k
0j
1h
1f
0c
0`
0i
1n
1m
1k
0l
1i
0n
1o
1l
0o
#560000
0!
0Y
0Z
#565000
1!
1Y
1Z
1R"
1^
0\
1_
0]
1`
#570000
0!
0Y
0Z
#575000
1!
1Y
1Z
1Q"
0R"
0a
0_
0^
1\
1b
0`
1a
1_
1]
1c
0b
1`
0c
#580000
0!
0Y
0Z
#585000
1!
1Y
1Z
1R"
1^
0\
0a
0_
0]
1b
0`
1c
#590000
0!
0Y
0Z
#595000
1!
1Y
1Z
1P"
0Q"
0R"
1d
0b
1a
1_
0^
1\
0g
0e
0c
0d
1b
1`
0_
1]
1j
0h
0f
1g
1e
1c
0`
0m
0k
0j
1h
1f
0i
1n
1m
1k
0l
1i
0n
1o
1l
0o
#600000
0!
0Y
0Z
#605000
1!
1Y
1Z
1R"
1^
0\
1_
0]
1`
#610000
0!
0Y
0Z
#615000
1!
1Y
1Z
1Q"
0R"
0a
0_
0^
1\
1d
0b
0`
1a
1_
1]
0g
0e
0c
0d
1b
1`
1j
0h
0f
1g
1e
1c
0m
0k
0j
1h
1f
0i
1n
1m
1k
0l
1i
0n
1o
1l
0o
#620000
0!
0Y
0Z
#625000
1!
1Y
1Z
1R"
1H!
1^
0\
0a
0_
0]
1d
0b
0`
0g
0e
0c
1j
0h
0f
0m
0k
0i
1n
0l
1o
#630000
0!
0Y
0Z
#635000
1!
1Y
1Z
1L"
0M"
0N"
0O"
0P"
0Q"
0R"
1p
0n
1m
1k
0j
1h
0H!
1g
1e
0d
1b
1a
1_
0^
1\
1q
0p
1n
0k
0h
1f
0e
1c
0b
1`
0_
1]
0o
1l
1i
0q
0f
0c
0`
1r
1o
0l
0i
0r
#640000
0!
0Y
0Z
#645000
1!
1Y
1Z
1R"
1^
0\
1_
0]
1`
#650000
0!
0Y
0Z
#655000
1!
1Y
1Z
1Q"
0R"
0a
0_
0^
1\
1b
0`
1a
1_
1]
1c
0b
1`
0c
#660000
0!
0Y
0Z
#665000
1!
1Y
1Z
1R"
1^
0\
0a
0_
0]
1b
0`
1c
#670000
0!
0Y
0Z
#675000
1!
1Y
1Z
1P"
0Q"
0R"
1d
0b
1a
1_
0^
1\
1e
0c
0d
1b
1`
0_
1]
1f
0e
1c
0`
0f
#680000
0!
0Y
0Z
#685000
1!
1Y
1Z
1R"
1^
0\
1_
0]
1`
#690000
0!
0Y
0Z
#695000
1!
1Y
1Z
1Q"
0R"
0a
0_
0^
1\
1d
0b
0`
1a
1_
1]
1e
0c
0d
1b
1`
1f
0e
1c
0f
#700000
0!
0Y
0Z
#705000
1!
1Y
1Z
1R"
1^
0\
0a
0_
0]
1d
0b
0`
1e
0c
1f
#710000
0!
0Y
0Z
#715000
1!
1Y
1Z
1O"
0P"
0Q"
0R"
0g
0e
0d
1b
1a
1_
0^
1\
1h
0f
1g
1e
1c
0b
1`
0_
1]
0h
1f
0c
0`
1i
0i
#720000
0!
0Y
0Z
#725000
1!
1Y
1Z
1R"
1^
0\
1_
0]
1`
#730000
0!
0Y
0Z
#735000
1!
1Y
1Z
1Q"
0R"
0a
0_
0^
1\
1b
0`
1a
1_
1]
1c
0b
1`
0c
#740000
0!
0Y
0Z
#745000
1!
1Y
1Z
1R"
1^
0\
0a
0_
0]
1b
0`
1c
#750000
0!
0Y
0Z
#755000
1!
1Y
1Z
1P"
0Q"
0R"
1d
0b
1a
1_
0^
1\
0g
0e
0c
0d
1b
1`
0_
1]
1h
0f
1g
1e
1c
0`
0h
1f
1i
0i
#760000
0!
0Y
0Z
#765000
1!
1Y
1Z
1R"
1^
0\
1_
0]
1`
#770000
0!
0Y
0Z
#775000
1!
1Y
1Z
1Q"
0R"
0a
0_
0^
1\
1d
0b
0`
1a
1_
1]
0g
0e
0c
0d
1b
1`
1h
0f
1g
1e
1c
0h
1f
1i
0i
#780000
0!
0Y
0Z
#785000
1!
1Y
1Z
1R"
1H!
1^
0\
0a
0_
0]
1d
0b
0`
0g
0e
0c
1h
0f
1i
#790000
0!
0Y
0Z
#795000
1!
1Y
1Z
1N"
0O"
0P"
0Q"
0R"
1j
0h
0H!
1g
1e
0d
1b
1a
1_
0^
1\
1k
0j
1h
1f
0e
1c
0b
1`
0_
1]
0i
0k
0f
0c
0`
1l
1i
0l
#800000
0!
0Y
0Z
#805000
1!
1Y
1Z
1R"
1^
0\
1_
0]
1`
#810000
0!
0Y
0Z
#815000
1!
1Y
1Z
1Q"
0R"
0a
0_
0^
1\
1b
0`
1a
1_
1]
1c
0b
1`
0c
#820000
0!
0Y
0Z
#825000
1!
1Y
1Z
1R"
1^
0\
0a
0_
0]
1b
0`
1c
#830000
0!
0Y
0Z
#835000
1!
1Y
1Z
1P"
0Q"
0R"
1d
0b
1a
1_
0^
1\
1e
0c
0d
1b
1`
0_
1]
1f
0e
1c
0`
0f
#840000
0!
0Y
0Z
#845000
1!
1Y
1Z
1R"
1^
0\
1_
0]
1`
#850000
0!
0Y
0Z
#855000
1!
1Y
1Z
1Q"
0R"
0a
0_
0^
1\
1d
0b
0`
1a
1_
1]
1e
0c
0d
1b
1`
1f
0e
1c
0f
#860000
0!
0Y
0Z
#865000
1!
1Y
1Z
1R"
1^
0\
0a
0_
0]
1d
0b
0`
1e
0c
1f
#870000
0!
0Y
0Z
#875000
1!
1Y
1Z
1O"
0P"
0Q"
0R"
0g
0e
0d
1b
1a
1_
0^
1\
1j
0h
0f
1g
1e
1c
0b
1`
0_
1]
1k
0j
1h
1f
0c
0`
0i
0k
1l
1i
0l
#880000
0!
0Y
0Z
#885000
1!
1Y
1Z
1R"
1^
0\
1_
0]
1`
#890000
0!
0Y
0Z
#895000
1!
1Y
1Z
1Q"
0R"
0a
0_
0^
1\
1b
0`
1a
1_
1]
1c
0b
1`
0c
#900000
0!
0Y
0Z
#905000
1!
1Y
1Z
1R"
1^
0\
0a
0_
0]
1b
0`
1c
#910000
0!
0Y
0Z
#915000
1!
1Y
1Z
1P"
0Q"
0R"
1d
0b
1a
1_
0^
1\
0g
0e
0c
0d
1b
1`
0_
1]
1j
0h
0f
1g
1e
1c
0`
1k
0j
1h
1f
0i
0k
1l
1i
0l
#920000
0!
0Y
0Z
#925000
1!
1Y
1Z
1R"
1^
0\
1_
0]
1`
#930000
0!
0Y
0Z
#935000
1!
1Y
1Z
1Q"
0R"
0a
0_
0^
1\
1d
0b
0`
1a
1_
1]
0g
0e
0c
0d
1b
1`
1j
0h
0f
1g
1e
1c
1k
0j
1h
1f
0i
0k
1l
1i
0l
#940000
0!
0Y
0Z
#945000
1!
1Y
1Z
1R"
1H!
1^
0\
0a
0_
0]
1d
0b
0`
0g
0e
0c
1j
0h
0f
1k
0i
1l
#950000
0!
0Y
0Z
#955000
1!
1Y
1Z
1M"
0N"
0O"
0P"
0Q"
0R"
0m
0k
0j
1h
0H!
1g
1e
0d
1b
1a
1_
0^
1\
1p
0n
1m
1k
0h
1f
0e
1c
0b
1`
0_
1]
0l
1i
1q
0p
1n
0f
0c
0`
0o
1l
0i
0q
1r
1o
0r
#960000
0!
0Y
0Z
#965000
1!
1Y
1Z
1R"
1^
0\
1_
0]
1`
#970000
0!
0Y
0Z
#975000
1!
1Y
1Z
1Q"
0R"
0a
0_
0^
1\
1b
0`
1a
1_
1]
1c
0b
1`
0c
#980000
0!
0Y
0Z
#985000
1!
1Y
1Z
1R"
1^
0\
0a
0_
0]
1b
0`
1c
#990000
0!
0Y
0Z
#995000
1!
1Y
1Z
1P"
0Q"
0R"
1d
0b
1a
1_
0^
1\
1e
0c
0d
1b
1`
0_
1]
1f
0e
1c
0`
0f
