clock2/simulation/qsim/clock2.msim.vcd
$comment
	File created using the following command:
		vcd file clock2.msim.vcd -direction
$end
$date
	Mon Jan 24 01:57:52 2022
$end
$version
	ModelSim Version 2020.1
$end
$timescale
	1ps
$end

$scope module clock2_vlg_vec_tst $end
$var reg 1 ! clk $end
$var reg 1 " clr $end
$var wire 1 # Hr [7] $end
$var wire 1 $ Hr [6] $end
$var wire 1 % Hr [5] $end
$var wire 1 & Hr [4] $end
$var wire 1 ' Hr [3] $end
$var wire 1 ( Hr [2] $end
$var wire 1 ) Hr [1] $end
$var wire 1 * Hr [0] $end
$var wire 1 + Min [7] $end
$var wire 1 , Min [6] $end
$var wire 1 - Min [5] $end
$var wire 1 . Min [4] $end
$var wire 1 / Min [3] $end
$var wire 1 0 Min [2] $end
$var wire 1 1 Min [1] $end
$var wire 1 2 Min [0] $end
$var wire 1 3 Sec [7] $end
$var wire 1 4 Sec [6] $end
$var wire 1 5 Sec [5] $end
$var wire 1 6 Sec [4] $end
$var wire 1 7 Sec [3] $end
$var wire 1 8 Sec [2] $end
$var wire 1 9 Sec [1] $end
$var wire 1 : Sec [0] $end

$scope module i1 $end
$var wire 1 ; gnd $end
$var wire 1 < vcc $end
$var wire 1 = unknown $end
$var tri1 1 > devclrn $end
$var tri1 1 ? devpor $end
$var tri1 1 @ devoe $end
$var wire 1 A Hr[0]~output_o $end
$var wire 1 B Hr[1]~output_o $end
$var wire 1 C Hr[2]~output_o $end
$var wire 1 D Hr[3]~output_o $end
$var wire 1 E Hr[4]~output_o $end
$var wire 1 F Hr[5]~output_o $end
$var wire 1 G Hr[6]~output_o $end
$var wire 1 H Hr[7]~output_o $end
$var wire 1 I Min[0]~output_o $end
$var wire 1 J Min[1]~output_o $end
$var wire 1 K Min[2]~output_o $end
$var wire 1 L Min[3]~output_o $end
$var wire 1 M Min[4]~output_o $end
$var wire 1 N Min[5]~output_o $end
$var wire 1 O Min[6]~output_o $end
$var wire 1 P Min[7]~output_o $end
$var wire 1 Q Sec[0]~output_o $end
$var wire 1 R Sec[1]~output_o $end
$var wire 1 S Sec[2]~output_o $end
$var wire 1 T Sec[3]~output_o $end
$var wire 1 U Sec[4]~output_o $end
$var wire 1 V Sec[5]~output_o $end
$var wire 1 W Sec[6]~output_o $end
$var wire 1 X Sec[7]~output_o $end
$var wire 1 Y clk~input_o $end
$var wire 1 Z clk~inputclkctrl_outclk $end
$var wire 1 [ clr~input_o $end
$var wire 1 \ Min~7_combout $end
$var wire 1 ] Sec~3_combout $end
$var wire 1 ^ Sec[0]~reg0_q $end
$var wire 1 _ Sec~4_combout $end
$var wire 1 ` Sec[1]~reg0_q $end
$var wire 1 a Add5~0_combout $end
$var wire 1 b Sec~5_combout $end
$var wire 1 c Sec[2]~reg0_q $end
$var wire 1 d Sec[0]~6_combout $end
$var wire 1 e Sec~7_combout $end
$var wire 1 f Sec[3]~reg0_q $end
$var wire 1 g Sec[0]~2_combout $end
$var wire 1 h Min~2_combout $end
$var wire 1 i Sec~8_combout $end
$var wire 1 j Sec[4]~reg0_q $end
$var wire 1 k Sec~9_combout $end
$var wire 1 l Sec[5]~reg0_q $end
$var wire 1 m Sec~11_combout $end
$var wire 1 n Sec[6]~reg0_q $end
$var wire 1 o Add4~0_combout $end
$var wire 1 p Sec~10_combout $end
$var wire 1 q Sec[7]~reg0_q $end
$var wire 1 r Equal4~0_combout $end
$var wire 1 s Min[0]~3_combout $end
$var wire 1 t Min[0]~reg0_q $end
$var wire 1 u Min~5_combout $end
$var wire 1 v Min[1]~reg0_q $end
$var wire 1 w Min~11_combout $end
$var wire 1 x Min[2]~reg0_q $end
$var wire 1 y Add3~0_combout $end
$var wire 1 z Min~6_combout $end
$var wire 1 { Min[3]~reg0_q $end
$var wire 1 | Equal0~0_combout $end
$var wire 1 } Min[0]~4_combout $end
$var wire 1 ~ Min[4]~reg0_q $end
$var wire 1 !! Min~8_combout $end
$var wire 1 "! Min[5]~reg0_q $end
$var wire 1 #! Add2~0_combout $end
$var wire 1 $! Min~9_combout $end
$var wire 1 %! Min[6]~reg0_q $end
$var wire 1 &! Add2~1_combout $end
$var wire 1 '! Min~10_combout $end
$var wire 1 (! Min[7]~reg0_q $end
$var wire 1 )! Equal0~1_combout $end
$var wire 1 *! Equal0~2_combout $end
$var wire 1 +! Hr[1]~4_combout $end
$var wire 1 ,! Hr[4]~9_combout $end
$var wire 1 -! Hr[4]~reg0_q $end
$var wire 1 .! Hr[5]~10_combout $end
$var wire 1 /! Hr[5]~reg0_q $end
$var wire 1 0! Add0~0_combout $end
$var wire 1 1! Hr[6]~11_combout $end
$var wire 1 2! Hr[6]~reg0_q $end
$var wire 1 3! Add0~1_combout $end
$var wire 1 4! Hr[7]~12_combout $end
$var wire 1 5! Hr[7]~reg0_q $end
$var wire 1 6! Add1~0_combout $end
$var wire 1 7! Hr[3]~7_combout $end
$var wire 1 8! Hr[3]~8_combout $end
$var wire 1 9! Hr[3]~reg0_q $end
$var wire 1 :! Equal0~4_combout $end
$var wire 1 ;! Equal0~5_combout $end
$var wire 1 <! Hr[4]~2_combout $end
$var wire 1 =! Hr[1]~5_combout $end
$var wire 1 >! Hr[1]~reg0_q $end
$var wire 1 ?! Hr[2]~13_combout $end
$var wire 1 @! Hr[2]~6_combout $end
$var wire 1 A! Hr[2]~reg0_q $end
$var wire 1 B! Equal0~3_combout $end
$var wire 1 C! Equal1~0_combout $end
$var wire 1 D! Hr[0]~3_combout $end
$var wire 1 E! Hr[0]~reg0_q $end
$upscope $end
$upscope $end
$enddefinitions $end
#0
$dumpvars
0!
0"
0*
0)
0(
0'
0&
0%
0$
0#
02
01
00
0/
0.
0-
0,
0+
0:
09
08
07
06
05
04
03
0;
1<
x=
1>
1?
1@
0A
0B
0C
0D
0E
0F
0G
0H
0I
0J
0K
0L
0M
0N
0O
0P
0Q
0R
0S
0T
0U
0V
0W
0X
0Y
0Z
0[
1\
1]
0^
0_
0`
0a
0b
0c
0d
0e
0f
0g
1h
1i
0j
0k
0l
0m
0n
0o
0p
0q
0r
0s
0t
0u
0v
0w
0x
0y
0z
0{
0|
0}
0~
0!!
0"!
0#!
0$!
0%!
0&!
0'!
0(!
0)!
0*!
0+!
0,!
0-!
0.!
0/!
00!
01!
02!
03!
04!
05!
06!
07!
08!
09!
0:!
0;!
1<!
0=!
0>!
0?!
0@!
0A!
0B!
0C!
0D!
0E!
$end
#50
1!
1Y
1Z
1^
1Q
1:
1_
0]
#100
0!
0Y
0Z
#150
1!
1Y
1Z
1`
0^
0Q
1R
19
0:
1]
#200
0!
0Y
0Z
#250
1!
1Y
1Z
1^
1Q
1a
1:
0_
0]
1b
#300
0!
0Y
0Z
#350
1!
1Y
1Z
1c
0`
0^
0Q
0R
1S
0a
18
09
0:
1e
0b
1]
0e
1b
#400
0!
0Y
0Z
#450
1!
1Y
1Z
1^
1Q
1:
1_
0]
#500
0!
0Y
0Z
#550
1!
1Y
1Z
1`
0^
0Q
1R
19
0:
1]
#600
0!
0Y
0Z
#650
1!
1Y
1Z
1^
1Q
1a
1:
0_
0]
1e
0b
#700
0!
0Y
0Z
#750
1!
1Y
1Z
1f
0c
0`
0^
0Q
0R
0S
1T
0a
17
08
09
0:
1b
1]
0b
#800
0!
0Y
0Z
#850
1!
1Y
1Z
1^
1Q
1g
1:
1_
0]
1d
0_
0e
#900
0!
0Y
0Z
#950
1!
1Y
1Z
1j
0f
0^
0Q
0T
1U
0g
16
07
0:
1k
0i
1]
0d
#1000
0!
0Y
0Z
#1050
1!
1Y
1Z
1^
1Q
1:
1_
0]
#1100
0!
0Y
0Z
#1150
1!
1Y
1Z
1`
0^
0Q
1R
19
0:
1]
#1200
0!
0Y
0Z
#1250
1!
1Y
1Z
1^
1Q
1a
1:
0_
0]
1b
#1300
0!
0Y
0Z
#1350
1!
1Y
1Z
1c
0`
0^
0Q
0R
1S
0a
18
09
0:
1e
0b
1]
0e
1b
#1400
0!
0Y
0Z
#1450
1!
1Y
1Z
1^
1Q
1:
1_
0]
#1500
0!
0Y
0Z
#1550
1!
1Y
1Z
1`
0^
0Q
1R
19
0:
1]
#1600
0!
0Y
0Z
#1650
1!
1Y
1Z
1^
1Q
1a
1:
0_
0]
1e
0b
#1700
0!
0Y
0Z
#1750
1!
1Y
1Z
1f
0c
0`
0^
0Q
0R
0S
1T
0a
17
08
09
0:
1b
1]
0b
#1800
0!
0Y
0Z
#1850
1!
1Y
1Z
1^
1Q
1g
1:
1_
0]
1d
0_
0e
#1900
0!
0Y
0Z
#1950
1!
1Y
1Z
1l
0j
0f
0^
0Q
0T
0U
1V
0g
15
06
07
0:
1i
1]
0d
#2000
0!
0Y
0Z
#2050
1!
1Y
1Z
1^
1Q
1:
1_
0]
#2100
0!
0Y
0Z
#2150
1!
1Y
1Z
1`
0^
0Q
1R
19
0:
1]
#2200
0!
0Y
0Z
#2250
1!
1Y
1Z
1^
1Q
1a
1:
0_
0]
1b
#2300
0!
0Y
0Z
#2350
1!
1Y
1Z
1c
0`
0^
0Q
0R
1S
0a
18
09
0:
1e
0b
1]
0e
1b
#2400
0!
0Y
0Z
#2450
1!
1Y
1Z
1^
1Q
1:
1_
0]
#2500
0!
0Y
0Z
#2550
1!
1Y
1Z
1`
0^
0Q
1R
19
0:
1]
#2600
0!
0Y
0Z
#2650
1!
1Y
1Z
1^
1Q
1a
1:
0_
0]
1e
0b
#2700
0!
0Y
0Z
#2750
1!
1Y
1Z
1f
0c
0`
0^
0Q
0R
0S
1T
0a
17
08
09
0:
1b
1]
0b
#2800
0!
0Y
0Z
#2850
1!
1Y
1Z
1^
1Q
1g
1:
1_
0]
1d
0_
0e
#2900
0!
0Y
0Z
#2950
1!
1Y
1Z
1j
0f
0^
0Q
0T
1U
1o
0g
16
07
0:
1m
0k
0i
1]
0d
#3000
0!
0Y
0Z
#3050
1!
1Y
1Z
1^
1Q
1:
1_
0]
#3100
0!
0Y
0Z
#3150
1!
1Y
1Z
1`
0^
0Q
1R
19
0:
1]
#3200
0!
0Y
0Z
#3250
1!
1Y
1Z
1^
1Q
1a
1:
0_
0]
1b
#3300
0!
0Y
0Z
#3350
1!
1Y
1Z
1c
0`
0^
0Q
0R
1S
0a
18
09
0:
1e
0b
1]
0e
1b
#3400
0!
0Y
0Z
#3450
1!
1Y
1Z
1^
1Q
1:
1_
0]
#3500
0!
0Y
0Z
#3550
1!
1Y
1Z
1`
0^
0Q
1R
19
0:
1]
#3600
0!
0Y
0Z
#3650
1!
1Y
1Z
1^
1Q
1a
1:
0_
0]
1e
0b
#3700
0!
0Y
0Z
#3750
1!
1Y
1Z
1f
0c
0`
0^
0Q
0R
0S
1T
0a
17
08
09
0:
1b
1]
0b
#3800
0!
0Y
0Z
#3850
1!
1Y
1Z
1^
1Q
1g
1:
1_
0]
1d
0_
0e
#3900
0!
0Y
0Z
#3950
1!
1Y
1Z
1n
0l
0j
0f
0^
0Q
0T
0U
0V
1W
0o
0g
14
05
06
07
0:
1p
1i
1]
0d
0p
#4000
0!
0Y
0Z
#4050
1!
1Y
1Z
1^
1Q
1:
1_
0]
#4100
0!
0Y
0Z
#4150
1!
1Y
1Z
1`
0^
0Q
1R
19
0:
1]
#4200
0!
0Y
0Z
#4250
1!
1Y
1Z
1^
1Q
1a
1:
0_
0]
1b
#4300
0!
0Y
0Z
#4350
1!
1Y
1Z
1c
0`
0^
0Q
0R
1S
0a
18
09
0:
1e
0b
1]
0e
1b
#4400
0!
0Y
0Z
#4450
1!
1Y
1Z
1^
1Q
1:
1_
0]
#4500
0!
0Y
0Z
#4550
1!
1Y
1Z
1`
0^
0Q
1R
19
0:
1]
#4600
0!
0Y
0Z
#4650
1!
1Y
1Z
1^
1Q
1a
1:
0_
0]
1e
0b
#4700
0!
0Y
0Z
#4750
1!
1Y
1Z
1f
0c
0`
0^
0Q
0R
0S
1T
0a
17
08
09
0:
1b
1]
0b
#4800
0!
0Y
0Z
#4850
1!
1Y
1Z
1^
1Q
1g
1:
1_
0]
1d
0_
0e
#4900
0!
0Y
0Z
#4950
1!
1Y
1Z
1j
0f
0^
0Q
0T
1U
1r
0g
16
07
0:
1k
0i
1]
0d
#5000
0!
0Y
0Z
#5050
1!
1Y
1Z
1^
1Q
1:
1_
0]
#5100
0!
0Y
0Z
#5150
1!
1Y
1Z
1`
0^
0Q
1R
19
0:
1]
#5200
0!
0Y
0Z
#5250
1!
1Y
1Z
1^
1Q
1a
1:
0_
0]
1b
#5300
0!
0Y
0Z
#5350
1!
1Y
1Z
1c
0`
0^
0Q
0R
1S
0a
18
09
0:
1e
0b
1]
0e
1b
#5400
0!
0Y
0Z
#5450
1!
1Y
1Z
1^
1Q
1:
1_
0]
#5500
0!
0Y
0Z
#5550
1!
1Y
1Z
1`
0^
0Q
1R
19
0:
1]
#5600
0!
0Y
0Z
#5650
1!
1Y
1Z
1^
1Q
1a
1:
0_
0]
1e
0b
#5700
0!
0Y
0Z
#5750
1!
1Y
1Z
1f
0c
0`
0^
0Q
0R
0S
1T
0a
17
08
09
0:
1b
1]
0b
#5800
0!
0Y
0Z
#5850
1!
1Y
1Z
1^
1Q
1g
1:
1_
0]
1s
1d
0_
0m
0k
0e
#5900
0!
0Y
0Z
#5950
1!
1Y
1Z
1t
0n
0j
0f
0^
0Q
0T
0U
0W
1I
0r
0g
12
04
06
07
0:
1u
0h
1i
1]
0s
0d
#6000
0!
0Y
0Z
#6050
1!
1Y
1Z
1^
1Q
1:
1_
0]
#6100
0!
0Y
0Z
#6150
1!
1Y
1Z
1`
0^
0Q
1R
19
0:
1]
#6200
0!
0Y
0Z
#6250
1!
1Y
1Z
1^
1Q
1a
1:
0_
0]
1b
#6300
0!
0Y
0Z
#6350
1!
1Y
1Z
1c
0`
0^
0Q
0R
1S
0a
18
09
0:
1e
0b
1]
0e
1b
#6400
0!
0Y
0Z
#6450
1!
1Y
1Z
1^
1Q
1:
1_
0]
#6500
0!
0Y
0Z
#6550
1!
1Y
1Z
1`
0^
0Q
1R
19
0:
1]
#6600
0!
0Y
0Z
#6650
1!
1Y
1Z
1^
1Q
1a
1:
0_
0]
1e
0b
#6700
0!
0Y
0Z
#6750
1!
1Y
1Z
1f
0c
0`
0^
0Q
0R
0S
1T
0a
17
08
09
0:
1b
1]
0b
#6800
0!
0Y
0Z
#6850
1!
1Y
1Z
1^
1Q
1g
1:
1_
0]
1d
0_
0e
#6900
0!
0Y
0Z
#6950
1!
1Y
1Z
1j
0f
0^
0Q
0T
1U
0g
16
07
0:
1k
0i
1]
0d
#7000
0!
0Y
0Z
#7050
1!
1Y
1Z
1^
1Q
1:
1_
0]
#7100
0!
0Y
0Z
#7150
1!
1Y
1Z
1`
0^
0Q
1R
19
0:
1]
#7200
0!
0Y
0Z
#7250
1!
1Y
1Z
1^
1Q
1a
1:
0_
0]
1b
#7300
0!
0Y
0Z
#7350
1!
1Y
1Z
1c
0`
0^
0Q
0R
1S
0a
18
09
0:
1e
0b
1]
0e
1b
#7400
0!
0Y
0Z
#7450
1!
1Y
1Z
1^
1Q
1:
1_
0]
#7500
0!
0Y
0Z
#7550
1!
1Y
1Z
1`
0^
0Q
1R
19
0:
1]
#7600
0!
0Y
0Z
#7650
1!
1Y
1Z
1^
1Q
1a
1:
0_
0]
1e
0b
#7700
0!
0Y
0Z
#7750
1!
1Y
1Z
1f
0c
0`
0^
0Q
0R
0S
1T
0a
17
08
09
0:
1b
1]
0b
#7800
0!
0Y
0Z
#7850
1!
1Y
1Z
1^
1Q
1g
1:
1_
0]
1d
0_
0e
#7900
0!
0Y
0Z
#7950
1!
1Y
1Z
1l
0j
0f
0^
0Q
0T
0U
1V
0g
15
06
07
0:
1i
1]
0d
#8000
0!
0Y
0Z
#8050
1!
1Y
1Z
1^
1Q
1:
1_
0]
#8100
0!
0Y
0Z
#8150
1!
1Y
1Z
1`
0^
0Q
1R
19
0:
1]
#8200
0!
0Y
0Z
#8250
1!
1Y
1Z
1^
1Q
1a
1:
0_
0]
1b
#8300
0!
0Y
0Z
#8350
1!
1Y
1Z
1c
0`
0^
0Q
0R
1S
0a
18
09
0:
1e
0b
1]
0e
1b
#8400
0!
0Y
0Z
#8450
1!
1Y
1Z
1^
1Q
1:
1_
0]
#8500
0!
0Y
0Z
#8550
1!
1Y
1Z
1`
0^
0Q
1R
19
0:
1]
#8600
0!
0Y
0Z
#8650
1!
1Y
1Z
1^
1Q
1a
1:
0_
0]
1e
0b
#8700
0!
0Y
0Z
#8750
1!
1Y
1Z
1f
0c
0`
0^
0Q
0R
0S
1T
0a
17
08
09
0:
1b
1]
0b
#8800
0!
0Y
0Z
#8850
1!
1Y
1Z
1^
1Q
1g
1:
1_
0]
1d
0_
0e
#8900
0!
0Y
0Z
#8950
1!
1Y
1Z
1j
0f
0^
0Q
0T
1U
1o
0g
16
07
0:
1m
0k
0i
1]
0d
#9000
0!
0Y
0Z
#9050
1!
1Y
1Z
1^
1Q
1:
1_
0]
#9100
0!
0Y
0Z
#9150
1!
1Y
1Z
1`
0^
0Q
1R
19
0:
1]
#9200
0!
0Y
0Z
#9250
1!
1Y
1Z
1^
1Q
1a
1:
0_
0]
1b
#9300
0!
0Y
0Z
#9350
1!
1Y
1Z
1c
0`
0^
0Q
0R
1S
0a
18
09
0:
1e
0b
1]
0e
1b
#9400
0!
0Y
0Z
#9450
1!
1Y
1Z
1^
1Q
1:
1_
0]
#9500
0!
0Y
0Z
#9550
1!
1Y
1Z
1`
0^
0Q
1R
19
0:
1]
#9600
0!
0Y
0Z
#9650
1!
1Y
1Z
1^
1Q
1a
1:
0_
0]
1e
0b
#9700
0!
0Y
0Z
#9750
1!
1Y
1Z
1f
0c
0`
0^
0Q
0R
0S
1T
0a
17
08
09
0:
1b
1]
0b
#9800
0!
0Y
0Z
#9850
1!
1Y
1Z
1^
1Q
1g
1:
1_
0]
1d
0_
0e
#9900
0!
0Y
0Z
#9950
1!
1Y
1Z
1n
0l
0j
0f
0^
0Q
0T
0U
0V
1W
0o
0g
14
05
06
07
0:
1p
1i
1]
0d
0p
#10000
0!
0Y
0Z
#10050
1!
1Y
1Z
1^
1Q
1:
1_
0]
#10100
0!
0Y
0Z
#10150
1!
1Y
1Z
1`
0^
0Q
1R
19
0:
1]
#10200
0!
0Y
0Z
#10250
1!
1Y
1Z
1^
1Q
1a
1:
0_
0]
1b
#10300
0!
0Y
0Z
#10350
1!
1Y
1Z
1c
0`
0^
0Q
0R
1S
0a
18
09
0:
1e
0b
1]
0e
1b
#10400
0!
0Y
0Z
#10450
1!
1Y
1Z
1^
1Q
1:
1_
0]
#10500
0!
0Y
0Z
#10550
1!
1Y
1Z
1`
0^
0Q
1R
19
0:
1]
#10600
0!
0Y
0Z
#10650
1!
1Y
1Z
1^
1Q
1a
1:
0_
0]
1e
0b
#10700
0!
0Y
0Z
#10750
1!
1Y
1Z
1f
0c
0`
0^
0Q
0R
0S
1T
0a
17
08
09
0:
1b
1]
0b
#10800
0!
0Y
0Z
#10850
1!
1Y
1Z
1^
1Q
1g
1:
1_
0]
1d
0_
0e
#10900
0!
0Y
0Z
#10950
1!
1Y
1Z
1j
0f
0^
0Q
0T
1U
1r
0g
16
07
0:
1k
0i
1]
0d
#11000
0!
0Y
0Z
#11050
1!
1Y
1Z
1^
1Q
1:
1_
0]
#11100
0!
0Y
0Z
#11150
1!
1Y
1Z
1`
0^
0Q
1R
19
0:
1]
#11200
0!
0Y
0Z
#11250
1!
1Y
1Z
1^
1Q
1a
1:
0_
0]
1b
#11300
0!
0Y
0Z
#11350
1!
1Y
1Z
1c
0`
0^
0Q
0R
1S
0a
18
09
0:
1e
0b
1]
0e
1b
#11400
0!
0Y
0Z
#11450
1!
1Y
1Z
1^
1Q
1:
1_
0]
#11500
0!
0Y
0Z
#11550
1!
1Y
1Z
1`
0^
0Q
1R
19
0:
1]
#11600
0!
0Y
0Z
#11650
1!
1Y
1Z
1^
1Q
1a
1:
0_
0]
1e
0b
#11700
0!
0Y
0Z
#11750
1!
1Y
1Z
1f
0c
0`
0^
0Q
0R
0S
1T
0a
17
08
09
0:
1b
1]
0b
#11800
0!
0Y
0Z
#11850
1!
1Y
1Z
1^
1Q
1g
1:
1_
0]
1s
1d
0_
0m
0k
0e
#11900
0!
0Y
0Z
#11950
1!
1Y
1Z
1v
0t
0n
0j
0f
0^
0Q
0T
0U
0W
0I
1J
0r
0g
11
02
04
06
07
0:
1h
1i
1]
0s
0d
#12000
0!
0Y
0Z
#12050
1!
1Y
1Z
1^
1Q
1:
1_
0]
#12100
0!
0Y
0Z
#12150
1!
1Y
1Z
1`
0^
0Q
1R
19
0:
1]
#12200
0!
0Y
0Z
#12250
1!
1Y
1Z
1^
1Q
1a
1:
0_
0]
1b
#12300
0!
0Y
0Z
#12350
1!
1Y
1Z
1c
0`
0^
0Q
0R
1S
0a
18
09
0:
1e
0b
1]
0e
1b
#12400
0!
0Y
0Z
#12450
1!
1Y
1Z
1^
1Q
1:
1_
0]
#12500
0!
0Y
0Z
#12550
1!
1Y
1Z
1`
0^
0Q
1R
19
0:
1]
#12600
0!
0Y
0Z
#12650
1!
1Y
1Z
1^
1Q
1a
1:
0_
0]
1e
0b
#12700
0!
0Y
0Z
#12750
1!
1Y
1Z
1f
0c
0`
0^
0Q
0R
0S
1T
0a
17
08
09
0:
1b
1]
0b
#12800
0!
0Y
0Z
#12850
1!
1Y
1Z
1^
1Q
1g
1:
1_
0]
1d
0_
0e
#12900
0!
0Y
0Z
#12950
1!
1Y
1Z
1j
0f
0^
0Q
0T
1U
0g
16
07
0:
1k
0i
1]
0d
#13000
0!
0Y
0Z
#13050
1!
1Y
1Z
1^
1Q
1:
1_
0]
#13100
0!
0Y
0Z
#13150
1!
1Y
1Z
1`
0^
0Q
1R
19
0:
1]
#13200
0!
0Y
0Z
#13250
1!
1Y
1Z
1^
1Q
1a
1:
0_
0]
1b
#13300
0!
0Y
0Z
#13350
1!
1Y
1Z
1c
0`
0^
0Q
0R
1S
0a
18
09
0:
1e
0b
1]
0e
1b
#13400
0!
0Y
0Z
#13450
1!
1Y
1Z
1^
1Q
1:
1_
0]
#13500
0!
0Y
0Z
#13550
1!
1Y
1Z
1`
0^
0Q
1R
19
0:
1]
#13600
0!
0Y
0Z
#13650
1!
1Y
1Z
1^
1Q
1a
1:
0_
0]
1e
0b
#13700
0!
0Y
0Z
#13750
1!
1Y
1Z
1f
0c
0`
0^
0Q
0R
0S
1T
0a
17
08
09
0:
1b
1]
0b
#13800
0!
0Y
0Z
#13850
1!
1Y
1Z
1^
1Q
1g
1:
1_
0]
1d
0_
0e
#13900
0!
0Y
0Z
#13950
1!
1Y
1Z
1l
0j
0f
0^
0Q
0T
0U
1V
0g
15
06
07
0:
1i
1]
0d
#14000
0!
0Y
0Z
#14050
1!
1Y
1Z
1^
1Q
1:
1_
0]
#14100
0!
0Y
0Z
#14150
1!
1Y
1Z
1`
0^
0Q
1R
19
0:
1]
#14200
0!
0Y
0Z
#14250
1!
1Y
1Z
1^
1Q
1a
1:
0_
0]
1b
#14300
0!
0Y
0Z
#14350
1!
1Y
1Z
1c
0`
0^
0Q
0R
1S
0a
18
09
0:
1e
0b
1]
0e
1b
#14400
0!
0Y
0Z
#14450
1!
1Y
1Z
1^
1Q
1:
1_
0]
#14500
0!
0Y
0Z
#14550
1!
1Y
1Z
1`
0^
0Q
1R
19
0:
1]
#14600
0!
0Y
0Z
#14650
1!
1Y
1Z
1^
1Q
1a
1:
0_
0]
1e
0b
#14700
0!
0Y
0Z
#14750
1!
1Y
1Z
1f
0c
0`
0^
0Q
0R
0S
1T
0a
17
08
09
0:
1b
1]
0b
#14800
0!
0Y
0Z
#14850
1!
1Y
1Z
1^
1Q
1g
1:
1_
0]
1d
0_
0e
#14900
0!
0Y
0Z
#14950
1!
1Y
1Z
1j
0f
0^
0Q
0T
1U
1o
0g
16
07
0:
1m
0k
0i
1]
0d
#15000
0!
0Y
0Z
#15050
1!
1Y
1Z
1^
1Q
1:
1_
0]
#15100
0!
0Y
0Z
#15150
1!
1Y
1Z
1`
0^
0Q
1R
19
0:
1]
#15200
0!
0Y
0Z
#15250
1!
1Y
1Z
1^
1Q
1a
1:
0_
0]
1b
#15300
0!
0Y
0Z
#15350
1!
1Y
1Z
1c
0`
0^
0Q
0R
1S
0a
18
09
0:
1e
0b
1]
0e
1b
#15400
0!
0Y
0Z
#15450
1!
1Y
1Z
1^
1Q
1:
1_
0]
#15500
0!
0Y
0Z
#15550
1!
1Y
1Z
1`
0^
0Q
1R
19
0:
1]
#15600
0!
0Y
0Z
#15650
1!
1Y
1Z
1^
1Q
1a
1:
0_
0]
1e
0b
#15700
0!
0Y
0Z
#15750
1!
1Y
1Z
1f
0c
0`
0^
0Q
0R
0S
1T
0a
17
08
09
0:
1b
1]
0b
#15800
0!
0Y
0Z
#15850
1!
1Y
1Z
1^
1Q
1g
1:
1_
0]
1d
0_
0e
#15900
0!
0Y
0Z
#15950
1!
1Y
1Z
1n
0l
0j
0f
0^
0Q
0T
0U
0V
1W
0o
0g
14
05
06
07
0:
1p
1i
1]
0d
0p
#16000
0!
0Y
0Z
#16050
1!
1Y
1Z
1^
1Q
1:
1_
0]
#16100
0!
0Y
0Z
#16150
1!
1Y
1Z
1`
0^
0Q
1R
19
0:
1]
#16200
0!
0Y
0Z
#16250
1!
1Y
1Z
1^
1Q
1a
1:
0_
0]
1b
#16300
0!
0Y
0Z
#16350
1!
1Y
1Z
1c
0`
0^
0Q
0R
1S
0a
18
09
0:
1e
0b
1]
0e
1b
#16400
0!
0Y
0Z
#16450
1!
1Y
1Z
1^
1Q
1:
1_
0]
#16500
0!
0Y
0Z
#16550
1!
1Y
1Z
1`
0^
0Q
1R
19
0:
1]
#16600
0!
0Y
0Z
#16650
1!
1Y
1Z
1^
1Q
1a
1:
0_
0]
1e
0b
#16700
0!
0Y
0Z
#16750
1!
1Y
1Z
1f
0c
0`
0^
0Q
0R
0S
1T
0a
17
08
09
0:
1b
1]
0b
#16800
0!
0Y
0Z
#16850
1!
1Y
1Z
1^
1Q
1g
1:
1_
0]
1d
0_
0e
#16900
0!
0Y
0Z
#16950
1!
1Y
1Z
1j
0f
0^
0Q
0T
1U
1r
0g
16
07
0:
1k
0i
1]
0d
#17000
0!
0Y
0Z
#17050
1!
1Y
1Z
1^
1Q
1:
1_
0]
#17100
0!
0Y
0Z
#17150
1!
1Y
1Z
1`
0^
0Q
1R
19
0:
1]
#17200
0!
0Y
0Z
#17250
1!
1Y
1Z
1^
1Q
1a
1:
0_
0]
1b
#17300
0!
0Y
0Z
#17350
1!
1Y
1Z
1c
0`
0^
0Q
0R
1S
0a
18
09
0:
1e
0b
1]
0e
1b
#17400
0!
0Y
0Z
#17450
1!
1Y
1Z
1^
1Q
1:
1_
0]
#17500
0!
0Y
0Z
#17550
1!
1Y
1Z
1`
0^
0Q
1R
19
0:
1]
#17600
0!
0Y
0Z
#17650
1!
1Y
1Z
1^
1Q
1a
1:
0_
0]
1e
0b
#17700
0!
0Y
0Z
#17750
1!
1Y
1Z
1f
0c
0`
0^
0Q
0R
0S
1T
0a
17
08
09
0:
1b
1]
0b
#17800
0!
0Y
0Z
#17850
1!
1Y
1Z
1^
1Q
1g
1:
1_
0]
1s
1d
0_
0m
0k
0e
#17900
0!
0Y
0Z
#17950
1!
1Y
1Z
1t
0n
0j
0f
0^
0Q
0T
0U
0W
1I
1y
0r
0g
12
04
06
07
0:
1w
0u
0h
1i
1]
0s
0d
#18000
0!
0Y
0Z
#18050
1!
1Y
1Z
1^
1Q
1:
1_
0]
#18100
0!
0Y
0Z
#18150
1!
1Y
1Z
1`
0^
0Q
1R
19
0:
1]
#18200
0!
0Y
0Z
#18250
1!
1Y
1Z
1^
1Q
1a
1:
0_
0]
1b
#18300
0!
0Y
0Z
#18350
1!
1Y
1Z
1c
0`
0^
0Q
0R
1S
0a
18
09
0:
1e
0b
1]
0e
1b
#18400
0!
0Y
0Z
#18450
1!
1Y
1Z
1^
1Q
1:
1_
0]
#18500
0!
0Y
0Z
#18550
1!
1Y
1Z
1`
0^
0Q
1R
19
0:
1]
#18600
0!
0Y
0Z
#18650
1!
1Y
1Z
1^
1Q
1a
1:
0_
0]
1e
0b
#18700
0!
0Y
0Z
#18750
1!
1Y
1Z
1f
0c
0`
0^
0Q
0R
0S
1T
0a
17
08
09
0:
1b
1]
0b
#18800
0!
0Y
0Z
#18850
1!
1Y
1Z
1^
1Q
1g
1:
1_
0]
1d
0_
0e
#18900
0!
0Y
0Z
#18950
1!
1Y
1Z
1j
0f
0^
0Q
0T
1U
0g
16
07
0:
1k
0i
1]
0d
#19000
0!
0Y
0Z
#19050
1!
1Y
1Z
1^
1Q
1:
1_
0]
#19100
0!
0Y
0Z
#19150
1!
1Y
1Z
1`
0^
0Q
1R
19
0:
1]
#19200
0!
0Y
0Z
#19250
1!
1Y
1Z
1^
1Q
1a
1:
0_
0]
1b
#19300
0!
0Y
0Z
#19350
1!
1Y
1Z
1c
0`
0^
0Q
0R
1S
0a
18
09
0:
1e
0b
1]
0e
1b
#19400
0!
0Y
0Z
#19450
1!
1Y
1Z
1^
1Q
1:
1_
0]
#19500
0!
0Y
0Z
#19550
1!
1Y
1Z
1`
0^
0Q
1R
19
0:
1]
#19600
0!
0Y
0Z
#19650
1!
1Y
1Z
1^
1Q
1a
1:
0_
0]
1e
0b
#19700
0!
0Y
0Z
#19750
1!
1Y
1Z
1f
0c
0`
0^
0Q
0R
0S
1T
0a
17
08
09
0:
1b
1]
0b
#19800
0!
0Y
0Z
#19850
1!
1Y
1Z
1^
1Q
1g
1:
1_
0]
1d
0_
0e
#19900
0!
0Y
0Z
